sim/DUAL_PORT_ENV/FADD_40_ENV/verdiLog/sim.log
Command: /media/mrx/share_space/TRI_ANGLE/sim/DUAL_PORT_ENV/FADD_40_ENV/simv +UVM_VERDI_TRACE=UVM_AWARE+RAL+HIRE+COMPWAVE +UVM_TR_RECORD -sml=verdi +fsdb+gate=off -ucli2Proc -ucli -l /media/mrx/share_space/TRI_ANGLE/sim/DUAL_PORT_ENV/FADD_40_ENV/verdiLog/sim.log
Chronologic VCS simulator copyright 1991-2018
Contains Synopsys proprietary information.
Compiler version O-2018.09-SP2_Full64; Runtime version O-2018.09-SP2_Full64;  Apr 12 20:25 2024
<slp!&*()_+>
UVM_INFO /usr/synopsys/vcs/O-2018.09-SP2/etc/uvm-1.2/base/uvm_root.svh(402) @ 0: reporter [UVM/RELNOTES] 
----------------------------------------------------------------
UVM-1.2.Synopsys
(C) 2007-2014 Mentor Graphics Corporation
(C) 2007-2014 Cadence Design Systems, Inc.
(C) 2006-2014 Synopsys, Inc.
(C) 2011-2013 Cypress Semiconductor Corp.
(C) 2013-2014 NVIDIA Corporation
----------------------------------------------------------------
  ***********       IMPORTANT RELEASE NOTES         ************
  You are using a version of the UVM library that has been compiled
  with `UVM_NO_DEPRECATED undefined.
  See http://www.eda.org/svdb/view.php?id=3313 for more details.
  You are using a version of the UVM library that has been compiled
  with `UVM_OBJECT_DO_NOT_NEED_CONSTRUCTOR undefined.
  See http://www.eda.org/svdb/view.php?id=3770 for more details.
      (Specify +UVM_NO_RELNOTES to turn off this notice)
<slb!&*()_+>---<sls!&*()_+>loc: -1<sls!&*()_+>src: /usr/synopsys/vcs/O-2018.09-SP2/etc/uvm-1.2/base/uvm_root.svh<sls!&*()_+>line: 402<sls!&*()_+>time: 0 ps<sls!&*()_+>length: 0<sls!&*()_+>...<sls!&*()_+><sle!&*()_+>

ucli% synUtils::getArch
linux64
ucli% loaddl -simv /usr/synopsys/verdi/Verdi_O-2018.09-SP2/share/PLI/VCS/LINUXAMD64/libnovas.so LoadFSDBDumpCmd;LoadFSDBDumpCmd
LoadFSDBDumpCmd success
ucli% config ckptfsdbcheck off;config endofsim noexit;config onfail {enable all};config followactivescope on;catch {setUcliVerdiConnected};set watch::resultTagsForVerdiBP {<ucli_break_bp_status_begin> <ucli_break_bp_status_end>};cbug::config pretty_print auto;fsdbDumpfile {/media/mrx/share_space/TRI_ANGLE/sim/DUAL_PORT_ENV/FADD_40_ENV/inter.fsdb} ;fsdbDumpflush ; 
*Verdi* Loading libsscore_vcs201809.so
FSDB Dumper for VCS, Release Verdi_O-2018.09-SP2, Linux x86_64/64bit, 02/21/2019
(C) 1996 - 2019 by Synopsys, Inc.
*Verdi* FSDB WARNING: The FSDB file already exists. Overwriting the FSDB file may crash the programs that are using this file.
*Verdi* : Create FSDB file '/media/mrx/share_space/TRI_ANGLE/sim/DUAL_PORT_ENV/FADD_40_ENV/inter.fsdb'
*Verdi* : Flush all FSDB Files at 0 ps.

ucli% fsdbDumpvars 1 "top_tb.u_FADD_N40.i_sign_a"  +all +trace_process;fsdbDumpvars 1 "top_tb.u_FADD_N40.i_exp_a"  +all +trace_process;fsdbDumpvars 1 "top_tb.u_FADD_N40.i_frac_a"  +all +trace_process;fsdbDumpvars 1 "top_tb.u_FADD_N40.i_sign_b"  +all +trace_process;fsdbDumpvars 1 "top_tb.u_FADD_N40.i_exp_b"  +all +trace_process;fsdbDumpvars 1 "top_tb.u_FADD_N40.i_frac_b"  +all +trace_process;fsdbDumpvars 1 "top_tb.u_FADD_N40.o_sign_c"  +all +trace_process;fsdbDumpvars 1 "top_tb.u_FADD_N40.o_exp_c"  +all +trace_process;fsdbDumpvars 1 "top_tb.u_FADD_N40.o_frac_c"  +all +trace_process;fsdbDumpvars 1 "top_tb.u_FADD_N40.FRAC_WIDTH"  +all +trace_process;fsdbDumpvars 1 "top_tb.u_FADD_N40.EXP_WIDTH"  +all +trace_process;fsdbDumpvars 1 "top_tb.u_FADD_N40.exp_close"  +all +trace_process;fsdbDumpvars 1 "top_tb.u_FADD_N40.exp_f"  +all +trace_process;fsdbDumpvars 1 "top_tb.u_FADD_N40.exp_far"  +all +trace_process;fsdbDumpvars 1 "top_tb.u_FADD_N40.diff_abs"  +all +trace_process;fsdbDumpvars 1 "top_tb.u_FADD_N40.diff_a_sub_b"  +all +trace_process;fsdbDumpvars 1 "\$unit"  +all +trace_process;fsdbDumpvars 1 "top_tb.u_FADD_N40.diff_b_sub_a"  +all +trace_process;fsdbDumpvars 1 "top_tb.u_FADD_N40.elarge_op"  +all +trace_process;fsdbDumpvars 1 "top_tb.u_FADD_N40.esmall_op"  +all +trace_process;fsdbDumpvars 1 "top_tb.u_FADD_N40.close_result"  +all +trace_process;fsdbDumpvars 1 "top_tb.u_FADD_N40.far_result"  +all +trace_process;fsdbDumpvars 1 "top_tb.u_FADD_N40.exp_a_lt_b"  +all +trace_process;fsdbDumpvars 1 "top_tb.u_FADD_N40.exp_a_neq_b"  +all +trace_process;fsdbDumpvars 1 "top_tb.u_FADD_N40.sign_diff"  +all +trace_process;fsdbDumpvars 1 "top_tb.u_FADD_N40.path_sel"  +all +trace_process;fsdbDumpvars 1 "top_tb.u_FADD_N40.far_sign"  +all +trace_process;fsdbDumpvars 1 "top_tb.u_FADD_N40.close_sign"  +all +trace_process;fsdbDumpflush 
*Verdi* : Dumping the signal (top_tb.u_FADD_N40.i_sign_a).
*Verdi* : Dumping the signal (top_tb.u_FADD_N40.i_exp_a).
*Verdi* : Dumping the signal (top_tb.u_FADD_N40.i_frac_a).
*Verdi* : Dumping the signal (top_tb.u_FADD_N40.i_sign_b).
*Verdi* : Dumping the signal (top_tb.u_FADD_N40.i_exp_b).
*Verdi* : Dumping the signal (top_tb.u_FADD_N40.i_frac_b).
*Verdi* : Dumping the signal (top_tb.u_FADD_N40.o_sign_c).
*Verdi* : Dumping the signal (top_tb.u_FADD_N40.o_exp_c).
*Verdi* : Dumping the signal (top_tb.u_FADD_N40.o_frac_c).
*Verdi* : Dumping the signal (top_tb.u_FADD_N40.FRAC_WIDTH).
*Verdi* : Dumping the signal (top_tb.u_FADD_N40.EXP_WIDTH).
*Verdi* : Dumping the signal (top_tb.u_FADD_N40.exp_close).
*Verdi* : Dumping the signal (top_tb.u_FADD_N40.exp_f).
*Verdi* : Dumping the signal (top_tb.u_FADD_N40.exp_far).
*Verdi* : Dumping the signal (top_tb.u_FADD_N40.diff_abs).
*Verdi* : Dumping the signal (top_tb.u_FADD_N40.diff_a_sub_b).
*Verdi* : Begin traversing the scope ($unit), layer (1).
*Verdi* : Enable +trace_process and +all dumping.
*Verdi* : End of traversing.
*Verdi* : Dumping the signal (top_tb.u_FADD_N40.diff_b_sub_a).
*Verdi* : Dumping the signal (top_tb.u_FADD_N40.elarge_op).
*Verdi* : Dumping the signal (top_tb.u_FADD_N40.esmall_op).
*Verdi* : Dumping the signal (top_tb.u_FADD_N40.close_result).
*Verdi* : Dumping the signal (top_tb.u_FADD_N40.far_result).
*Verdi* : Dumping the signal (top_tb.u_FADD_N40.exp_a_lt_b).
*Verdi* : Dumping the signal (top_tb.u_FADD_N40.exp_a_neq_b).
*Verdi* : Dumping the signal (top_tb.u_FADD_N40.sign_diff).
*Verdi* : Dumping the signal (top_tb.u_FADD_N40.path_sel).
*Verdi* : Dumping the signal (top_tb.u_FADD_N40.far_sign).
*Verdi* : Dumping the signal (top_tb.u_FADD_N40.close_sign).
*Verdi* : Flush all FSDB Files at 0 ps.

ucli% fsdbDumpClassObject {$unit::f41_sequence@1.f_trans_1} 

ucli% fsdbDumpClassObject {$unit::f_transaction@78.D_ZERO_FLAG} 

ucli% sps_interactive
*Verdi* : Enable RPC Server(139136)

ucli% ucliCore::getToolPID
139136
ucli% ucliCore::getToolPID
139136
ucli% if {[catch {ucliCore::setFocus tool}]} {}

ucli% puts $ucliCore::nativeUcliMode
0

ucli% ucliCore::getToolTopPID
139136
ucli% pid
139143
ucli% synUtils::sendTool -active {_icl_createSharedMemory /tmp/vcs_dve_general.mrx.139136 }

ucli% if { [info vars watch::vcbp_str_len_limit_of_get_value] != ""} {set watch::vcbp_str_len_limit_of_get_value 1024}
1024
ucli% info command stateVerdiChangeCB

ucli% proc stateVerdiChangeCB args { if {$ucliGUI::state eq "terminated"} {puts "\nVERDI_SIM_Terminated\n";catch {setVerdiSimTerminated}}}

ucli% trace variable ucliGUI::state wu stateVerdiChangeCB

ucli% if {[catch {rename synopsys::restore verdiHack::restore} ]} {puts "0"}

ucli% proc synopsys::restore {args} { verdiHack::restore $args; puts "\nVERDI_SIM_RESTORE\n"}

ucli% if {[catch {rename quit verdiHack::quit} ]} {puts "0"}

ucli% proc quit {args} { if {[string length $args] == 0} { verdiHack::quit; } elseif {([string equal "-h" $args] == 1)||([string equal "-he" $args] == 1)||([string equal "-hel" $args] == 1)||([string equal "-help" $args] == 1)} { puts "\n quit           # Exit the simulation.\n \[-noprompt\]        (Exit the simulation and Verdi.)\n"} elseif {([string equal "-n" $args] == 1)||([string equal "-no" $args] == 1)||([string equal "-nop" $args] == 1)||([string equal "-nopr" $args] == 1)||([string equal "-nopro" $args] == 1)||([string equal "-noprom" $args] == 1)||([string equal "-nopromp" $args] == 1)||([string equal "-noprompt" $args] == 1)} { puts "\nVERDI_EXIT_N\n" } else { verdiHack::quit $args; } }

ucli% if {[catch {rename exit verdiHack::exit} ]} {puts "0"}

ucli% proc exit {args} { if {[string length $args] == 0} { verdiHack::exit; } elseif {([string equal "-h" $args] == 1)||([string equal "-he" $args] == 1)||([string equal "-hel" $args] == 1)||([string equal "-help" $args] == 1)} { puts "\n exit           # Exit the simulation.\n \[-noprompt\]        (Exit the simulation and Verdi.)\n"} elseif {([string equal "-n" $args] == 1)||([string equal "-no" $args] == 1)||([string equal "-nop" $args] == 1)||([string equal "-nopr" $args] == 1)||([string equal "-nopro" $args] == 1)||([string equal "-noprom" $args] == 1)||([string equal "-nopromp" $args] == 1)||([string equal "-noprompt" $args] == 1)} { puts "\nVERDI_EXIT_N\n" } else { verdiHack::exit $args; } }

ucli% proc checkpoint::beforeRecreate {} { sps_interactive }

ucli% if {[catch {ucliCore::setFocus tool}]} {}

ucli% fsdbDumpflush 
*Verdi* : Flush all FSDB Files at 0 ps.

ucli% if {[catch {ucliCore::setFocus tool}]} {}

ucli% fsdbDumpflush 
*Verdi* : Flush all FSDB Files at 0 ps.

ucli% senv
activeDomain: Verilog
activeFile: /usr/synopsys/vcs/O-2018.09-SP2/etc/uvm-1.2/verdi/uvm_custom_install_verdi_recorder.sv
activeFrame: -1
activeLine: 46
activeScope: uvm_custom_install_verdi_recording
activeThread: 0
endCol: 0
file: /usr/synopsys/vcs/O-2018.09-SP2/etc/uvm-1.2/verdi/uvm_custom_install_verdi_recorder.sv
frame: -1
fsdbFilename: 
hasTB: 1
inputFilename: 
keyFilename: ucli.key
line: 46
logFilename: /media/mrx/share_space/TRI_ANGLE/sim/DUAL_PORT_ENV/FADD_40_ENV/verdiLog/sim.log
macroIndex: -1
macroOffset: -1
pid: 139136
scope: uvm_custom_install_verdi_recording
startCol: 0
state: stopped
thread: 0
time: 0
timePrecision: 1 ps
vcdFilename: 
vpdFilename:
ucli% puts $::ucliCore::cbug_active
0

ucli% if {[catch {ucliCore::setFocus tool}]} {}

ucli% checkpoint -list -all
There are no checkpoints present.
ucli% if {[catch {ucliCore::setFocus tool}]} {}

ucli% stop
No stop points are set
ucli% if {[catch {ucliCore::setFocus tool}]} {}

ucli% run
<slp!&*()_+>
*Verdi* Enable Verdi Message Catcher.
<slb!&*()_+>---<sls!&*()_+>loc: -1<sls!&*()_+>src: /usr/synopsys/vcs/O-2018.09-SP2/etc/uvm-1.2/verdi/uvm_verdi_message_catcher.svh<sls!&*()_+>line: 348<sls!&*()_+>time: 0 ps<sls!&*()_+>length: 0<sls!&*()_+>...<sls!&*()_+><sle!&*()_+>
*Verdi* : Begin dumping the Class Object by file (/usr/synopsys/vcs/O-2018.09-SP2/etc/uvm-1.2/verdi/component.config).
*Verdi* : End of class object dumping.
<slp!&*()_+>
UVM_INFO /usr/synopsys/vcs/O-2018.09-SP2/etc/uvm-1.2/verdi/uvm_custom_install_verdi_recorder.sv(276) @ 0: reporter [VERDI_TR_AUTO] +UVM_TR_RECORD implicitly enables recording_details to UVM_FULL for all components. For explicit control use +UVM_DISABLE_AUTO_COMPONENT and set recording_detail on components accordingly
<slb!&*()_+>---<sls!&*()_+>loc: -1<sls!&*()_+>src: /usr/synopsys/vcs/O-2018.09-SP2/etc/uvm-1.2/base/uvm_globals.svh<sls!&*()_+>line: 184<sls!&*()_+>time: 0 ps<sls!&*()_+>length: 0<sls!&*()_+>...<sls!&*()_+><sle!&*()_+>
<slp!&*()_+>
*Verdi* Enable Verdi Factory Dumping.
<slb!&*()_+>---<sls!&*()_+>loc: -1<sls!&*()_+>src: /usr/synopsys/vcs/O-2018.09-SP2/etc/uvm-1.2/verdi/uvm_verdi_factory.svh<sls!&*()_+>line: 166<sls!&*()_+>time: 0 ps<sls!&*()_+>length: 0<sls!&*()_+>...<sls!&*()_+><sle!&*()_+>
<slp!&*()_+>
UVM_INFO @ 0: reporter [RNTST] Running test f_env...
<slb!&*()_+>---<sls!&*()_+>loc: -1<sls!&*()_+>src: /usr/synopsys/vcs/O-2018.09-SP2/etc/uvm-1.2/base/uvm_root.svh<sls!&*()_+>line: 504<sls!&*()_+>time: 0 ps<sls!&*()_+>length: 0<sls!&*()_+>...<sls!&*()_+><sle!&*()_+>
*Verdi* : Begin traversing the scopes, layer (0).
*Verdi* : End of traversing.
<slp!&*()_+>
UVM_INFO ../UVM_ENV/f41_driver.sv(10) @ 0: uvm_test_top.i0_agt.drv [drv] build phase is called
<slb!&*()_+>---<sls!&*()_+>loc: -1<sls!&*()_+>src: ../UVM_ENV/f41_driver.sv<sls!&*()_+>line: 10<sls!&*()_+>time: 0 ps<sls!&*()_+>length: 0<sls!&*()_+>...<sls!&*()_+><sle!&*()_+>
<slp!&*()_+>
UVM_INFO ../UVM_ENV/f41_driver.sv(10) @ 0: uvm_test_top.i1_agt.drv [drv] build phase is called
<slb!&*()_+>---<sls!&*()_+>loc: -1<sls!&*()_+>src: ../UVM_ENV/f41_driver.sv<sls!&*()_+>line: 10<sls!&*()_+>time: 0 ps<sls!&*()_+>length: 0<sls!&*()_+>...<sls!&*()_+><sle!&*()_+>
<slp!&*()_+>
*Verdi* Enable Verdi Recorder.
<slb!&*()_+>---<sls!&*()_+>loc: -1<sls!&*()_+>src: /usr/synopsys/vcs/O-2018.09-SP2/etc/uvm-1.2/verdi/uvm_verdi_tr_stream.svh<sls!&*()_+>line: 107<sls!&*()_+>time: 0 ps<sls!&*()_+>length: 0<sls!&*()_+>...<sls!&*()_+><sle!&*()_+>
<slp!&*()_+>
Info: Verdi UVM 1.2 Hooks File 06/17/2014 
<slb!&*()_+>---<sls!&*()_+>loc: -1<sls!&*()_+>src: /usr/synopsys/vcs/O-2018.09-SP2/etc/uvm-1.2/verdi/uvm_verdi_tr_stream.svh<sls!&*()_+>line: 138<sls!&*()_+>time: 0 ps<sls!&*()_+>length: 0<sls!&*()_+>...<sls!&*()_+><sle!&*()_+>
<slp!&*()_+>
UVM_INFO ../UVM_ENV/ref_model.sv(118) @ 25000: uvm_test_top.rfmodel [ref_model] igonore the min op
<slb!&*()_+>---<sls!&*()_+>loc: -1<sls!&*()_+>src: ../UVM_ENV/ref_model.sv<sls!&*()_+>line: 118<sls!&*()_+>time: 25000 ps<sls!&*()_+>length: 0<sls!&*()_+>...<sls!&*()_+><sle!&*()_+>
----------------------------------------------
Name         Type           Size  Value       
----------------------------------------------
tr           f_transaction  -     @1943       
  f41_exp8   integral       8     'h89        
  frac32     integral       32    'hb36ec582  
  frac40     integral       40    'hb36ec5823a
  frac36     integral       36    'hb36ec5823 
  sign       integral       1     'h1         
  f64_value  real           64    -0.000000   
----------------------------------------------
<slp!&*()_+>
UVM_INFO ../UVM_ENV/f_scoreboard.sv(40) @ 25000: uvm_test_top.f_scoreboard [f_scoreboard] SCB get ref DATA
<slb!&*()_+>---<sls!&*()_+>loc: -1<sls!&*()_+>src: ../UVM_ENV/f_scoreboard.sv<sls!&*()_+>line: 40<sls!&*()_+>time: 25000 ps<sls!&*()_+>length: 0<sls!&*()_+>...<sls!&*()_+><sle!&*()_+>
<slp!&*()_+>
UVM_INFO ../UVM_ENV/f_scoreboard.sv(46) @ 35000: uvm_test_top.f_scoreboard [f_scoreboard] SCB get DUT DATA
<slb!&*()_+>---<sls!&*()_+>loc: -1<sls!&*()_+>src: ../UVM_ENV/f_scoreboard.sv<sls!&*()_+>line: 46<sls!&*()_+>time: 35000 ps<sls!&*()_+>length: 0<sls!&*()_+>...<sls!&*()_+><sle!&*()_+>
<slp!&*()_+>
UVM_INFO ../UVM_ENV/f_scoreboard.sv(52) @ 35000: uvm_test_top.f_scoreboard [f_scoreboard] cmp successfully
<slb!&*()_+>---<sls!&*()_+>loc: -1<sls!&*()_+>src: ../UVM_ENV/f_scoreboard.sv<sls!&*()_+>line: 52<sls!&*()_+>time: 35000 ps<sls!&*()_+>length: 0<sls!&*()_+>...<sls!&*()_+><sle!&*()_+>
<slp!&*()_+>
UVM_INFO ../UVM_ENV/ref_model.sv(118) @ 45000: uvm_test_top.rfmodel [ref_model] igonore the min op
<slb!&*()_+>---<sls!&*()_+>loc: -1<sls!&*()_+>src: ../UVM_ENV/ref_model.sv<sls!&*()_+>line: 118<sls!&*()_+>time: 45000 ps<sls!&*()_+>length: 0<sls!&*()_+>...<sls!&*()_+><sle!&*()_+>
----------------------------------------------
Name         Type           Size  Value       
----------------------------------------------
tr           f_transaction  -     @1991       
  f41_exp8   integral       8     'h9b        
  frac32     integral       32    'ha6f4469c  
  frac40     integral       40    'ha6f4469cf4
  frac36     integral       36    'ha6f4469cf 
  sign       integral       1     'h1         
  f64_value  real           64    -0.000000   
----------------------------------------------
<slp!&*()_+>
UVM_INFO ../UVM_ENV/f_scoreboard.sv(40) @ 45000: uvm_test_top.f_scoreboard [f_scoreboard] SCB get ref DATA
<slb!&*()_+>---<sls!&*()_+>loc: -1<sls!&*()_+>src: ../UVM_ENV/f_scoreboard.sv<sls!&*()_+>line: 40<sls!&*()_+>time: 45000 ps<sls!&*()_+>length: 0<sls!&*()_+>...<sls!&*()_+><sle!&*()_+>
<slp!&*()_+>
UVM_INFO ../UVM_ENV/f_scoreboard.sv(46) @ 55000: uvm_test_top.f_scoreboard [f_scoreboard] SCB get DUT DATA
<slb!&*()_+>---<sls!&*()_+>loc: -1<sls!&*()_+>src: ../UVM_ENV/f_scoreboard.sv<sls!&*()_+>line: 46<sls!&*()_+>time: 55000 ps<sls!&*()_+>length: 0<sls!&*()_+>...<sls!&*()_+><sle!&*()_+>
<slp!&*()_+>
UVM_INFO ../UVM_ENV/f_scoreboard.sv(52) @ 55000: uvm_test_top.f_scoreboard [f_scoreboard] cmp successfully
<slb!&*()_+>---<sls!&*()_+>loc: -1<sls!&*()_+>src: ../UVM_ENV/f_scoreboard.sv<sls!&*()_+>line: 52<sls!&*()_+>time: 55000 ps<sls!&*()_+>length: 0<sls!&*()_+>...<sls!&*()_+><sle!&*()_+>
<slp!&*()_+>
UVM_INFO ../UVM_ENV/ref_model.sv(118) @ 65000: uvm_test_top.rfmodel [ref_model] igonore the min op
<slb!&*()_+>---<sls!&*()_+>loc: -1<sls!&*()_+>src: ../UVM_ENV/ref_model.sv<sls!&*()_+>line: 118<sls!&*()_+>time: 65000 ps<sls!&*()_+>length: 0<sls!&*()_+>...<sls!&*()_+><sle!&*()_+>
----------------------------------------------
Name         Type           Size  Value       
----------------------------------------------
tr           f_transaction  -     @2041       
  f41_exp8   integral       8     'hb1        
  frac32     integral       32    'hd1b6ec96  
  frac40     integral       40    'hd1b6ec9608
  frac36     integral       36    'hd1b6ec960 
  sign       integral       1     'h1         
  f64_value  real           64    -0.000000   
----------------------------------------------
<slp!&*()_+>
UVM_INFO ../UVM_ENV/f_scoreboard.sv(40) @ 65000: uvm_test_top.f_scoreboard [f_scoreboard] SCB get ref DATA
<slb!&*()_+>---<sls!&*()_+>loc: -1<sls!&*()_+>src: ../UVM_ENV/f_scoreboard.sv<sls!&*()_+>line: 40<sls!&*()_+>time: 65000 ps<sls!&*()_+>length: 0<sls!&*()_+>...<sls!&*()_+><sle!&*()_+>
<slp!&*()_+>
UVM_INFO ../UVM_ENV/f_scoreboard.sv(46) @ 75000: uvm_test_top.f_scoreboard [f_scoreboard] SCB get DUT DATA
<slb!&*()_+>---<sls!&*()_+>loc: -1<sls!&*()_+>src: ../UVM_ENV/f_scoreboard.sv<sls!&*()_+>line: 46<sls!&*()_+>time: 75000 ps<sls!&*()_+>length: 0<sls!&*()_+>...<sls!&*()_+><sle!&*()_+>
<slp!&*()_+>
UVM_INFO ../UVM_ENV/f_scoreboard.sv(52) @ 75000: uvm_test_top.f_scoreboard [f_scoreboard] cmp successfully
<slb!&*()_+>---<sls!&*()_+>loc: -1<sls!&*()_+>src: ../UVM_ENV/f_scoreboard.sv<sls!&*()_+>line: 52<sls!&*()_+>time: 75000 ps<sls!&*()_+>length: 0<sls!&*()_+>...<sls!&*()_+><sle!&*()_+>
<slp!&*()_+>
UVM_INFO ../UVM_ENV/ref_model.sv(118) @ 85000: uvm_test_top.rfmodel [ref_model] igonore the min op
<slb!&*()_+>---<sls!&*()_+>loc: -1<sls!&*()_+>src: ../UVM_ENV/ref_model.sv<sls!&*()_+>line: 118<sls!&*()_+>time: 85000 ps<sls!&*()_+>length: 0<sls!&*()_+>...<sls!&*()_+><sle!&*()_+>
----------------------------------------------
Name         Type           Size  Value       
----------------------------------------------
tr           f_transaction  -     @2089       
  f41_exp8   integral       8     'hf5        
  frac32     integral       32    'he18c98ab  
  frac40     integral       40    'he18c98ab75
  frac36     integral       36    'he18c98ab7 
  sign       integral       1     'h0         
  f64_value  real           64    0.000860    
----------------------------------------------
<slp!&*()_+>
UVM_INFO ../UVM_ENV/f_scoreboard.sv(40) @ 85000: uvm_test_top.f_scoreboard [f_scoreboard] SCB get ref DATA
<slb!&*()_+>---<sls!&*()_+>loc: -1<sls!&*()_+>src: ../UVM_ENV/f_scoreboard.sv<sls!&*()_+>line: 40<sls!&*()_+>time: 85000 ps<sls!&*()_+>length: 0<sls!&*()_+>...<sls!&*()_+><sle!&*()_+>
<slp!&*()_+>
UVM_INFO ../UVM_ENV/f_scoreboard.sv(46) @ 95000: uvm_test_top.f_scoreboard [f_scoreboard] SCB get DUT DATA
<slb!&*()_+>---<sls!&*()_+>loc: -1<sls!&*()_+>src: ../UVM_ENV/f_scoreboard.sv<sls!&*()_+>line: 46<sls!&*()_+>time: 95000 ps<sls!&*()_+>length: 0<sls!&*()_+>...<sls!&*()_+><sle!&*()_+>
<slp!&*()_+>
UVM_INFO ../UVM_ENV/f_scoreboard.sv(52) @ 95000: uvm_test_top.f_scoreboard [f_scoreboard] cmp successfully
<slb!&*()_+>---<sls!&*()_+>loc: -1<sls!&*()_+>src: ../UVM_ENV/f_scoreboard.sv<sls!&*()_+>line: 52<sls!&*()_+>time: 95000 ps<sls!&*()_+>length: 0<sls!&*()_+>...<sls!&*()_+><sle!&*()_+>
<slp!&*()_+>
UVM_INFO ../UVM_ENV/ref_model.sv(118) @ 105000: uvm_test_top.rfmodel [ref_model] igonore the min op
<slb!&*()_+>---<sls!&*()_+>loc: -1<sls!&*()_+>src: ../UVM_ENV/ref_model.sv<sls!&*()_+>line: 118<sls!&*()_+>time: 105000 ps<sls!&*()_+>length: 0<sls!&*()_+>...<sls!&*()_+><sle!&*()_+>
----------------------------------------------
Name         Type           Size  Value       
----------------------------------------------
tr           f_transaction  -     @2137       
  f41_exp8   integral       8     'h98        
  frac32     integral       32    'h89b40a33  
  frac40     integral       40    'h89b40a3310
  frac36     integral       36    'h89b40a331 
  sign       integral       1     'h0         
  f64_value  real           64    0.000000    
----------------------------------------------
<slp!&*()_+>
UVM_INFO ../UVM_ENV/f_scoreboard.sv(40) @ 105000: uvm_test_top.f_scoreboard [f_scoreboard] SCB get ref DATA
<slb!&*()_+>---<sls!&*()_+>loc: -1<sls!&*()_+>src: ../UVM_ENV/f_scoreboard.sv<sls!&*()_+>line: 40<sls!&*()_+>time: 105000 ps<sls!&*()_+>length: 0<sls!&*()_+>...<sls!&*()_+><sle!&*()_+>
<slp!&*()_+>
UVM_INFO ../UVM_ENV/f_scoreboard.sv(46) @ 115000: uvm_test_top.f_scoreboard [f_scoreboard] SCB get DUT DATA
<slb!&*()_+>---<sls!&*()_+>loc: -1<sls!&*()_+>src: ../UVM_ENV/f_scoreboard.sv<sls!&*()_+>line: 46<sls!&*()_+>time: 115000 ps<sls!&*()_+>length: 0<sls!&*()_+>...<sls!&*()_+><sle!&*()_+>
<slp!&*()_+>
UVM_INFO ../UVM_ENV/f_scoreboard.sv(52) @ 115000: uvm_test_top.f_scoreboard [f_scoreboard] cmp successfully
<slb!&*()_+>---<sls!&*()_+>loc: -1<sls!&*()_+>src: ../UVM_ENV/f_scoreboard.sv<sls!&*()_+>line: 52<sls!&*()_+>time: 115000 ps<sls!&*()_+>length: 0<sls!&*()_+>...<sls!&*()_+><sle!&*()_+>
<slp!&*()_+>
UVM_INFO ../UVM_ENV/ref_model.sv(118) @ 125000: uvm_test_top.rfmodel [ref_model] igonore the min op
<slb!&*()_+>---<sls!&*()_+>loc: -1<sls!&*()_+>src: ../UVM_ENV/ref_model.sv<sls!&*()_+>line: 118<sls!&*()_+>time: 125000 ps<sls!&*()_+>length: 0<sls!&*()_+>...<sls!&*()_+><sle!&*()_+>
----------------------------------------------
Name         Type           Size  Value       
----------------------------------------------
tr           f_transaction  -     @2185       
  f41_exp8   integral       8     'ha6        
  frac32     integral       32    'he7b4fb0c  
  frac40     integral       40    'he7b4fb0c83
  frac36     integral       36    'he7b4fb0c8 
  sign       integral       1     'h0         
  f64_value  real           64    0.000000    
----------------------------------------------
<slp!&*()_+>
UVM_INFO ../UVM_ENV/f_scoreboard.sv(40) @ 125000: uvm_test_top.f_scoreboard [f_scoreboard] SCB get ref DATA
<slb!&*()_+>---<sls!&*()_+>loc: -1<sls!&*()_+>src: ../UVM_ENV/f_scoreboard.sv<sls!&*()_+>line: 40<sls!&*()_+>time: 125000 ps<sls!&*()_+>length: 0<sls!&*()_+>...<sls!&*()_+><sle!&*()_+>
<slp!&*()_+>
UVM_INFO ../UVM_ENV/f_scoreboard.sv(46) @ 135000: uvm_test_top.f_scoreboard [f_scoreboard] SCB get DUT DATA
<slb!&*()_+>---<sls!&*()_+>loc: -1<sls!&*()_+>src: ../UVM_ENV/f_scoreboard.sv<sls!&*()_+>line: 46<sls!&*()_+>time: 135000 ps<sls!&*()_+>length: 0<sls!&*()_+>...<sls!&*()_+><sle!&*()_+>
<slp!&*()_+>
UVM_INFO ../UVM_ENV/f_scoreboard.sv(52) @ 135000: uvm_test_top.f_scoreboard [f_scoreboard] cmp successfully
<slb!&*()_+>---<sls!&*()_+>loc: -1<sls!&*()_+>src: ../UVM_ENV/f_scoreboard.sv<sls!&*()_+>line: 52<sls!&*()_+>time: 135000 ps<sls!&*()_+>length: 0<sls!&*()_+>...<sls!&*()_+><sle!&*()_+>
<slp!&*()_+>
UVM_INFO ../UVM_ENV/ref_model.sv(118) @ 145000: uvm_test_top.rfmodel [ref_model] igonore the min op
<slb!&*()_+>---<sls!&*()_+>loc: -1<sls!&*()_+>src: ../UVM_ENV/ref_model.sv<sls!&*()_+>line: 118<sls!&*()_+>time: 145000 ps<sls!&*()_+>length: 0<sls!&*()_+>...<sls!&*()_+><sle!&*()_+>
----------------------------------------------
Name         Type           Size  Value       
----------------------------------------------
tr           f_transaction  -     @2233       
  f41_exp8   integral       8     'hdc        
  frac32     integral       32    'hc54138d9  
  frac40     integral       40    'hc54138d9a8
  frac36     integral       36    'hc54138d9a 
  sign       integral       1     'h1         
  f64_value  real           64    -0.000000   
----------------------------------------------
<slp!&*()_+>
UVM_INFO ../UVM_ENV/f_scoreboard.sv(40) @ 145000: uvm_test_top.f_scoreboard [f_scoreboard] SCB get ref DATA
<slb!&*()_+>---<sls!&*()_+>loc: -1<sls!&*()_+>src: ../UVM_ENV/f_scoreboard.sv<sls!&*()_+>line: 40<sls!&*()_+>time: 145000 ps<sls!&*()_+>length: 0<sls!&*()_+>...<sls!&*()_+><sle!&*()_+>
<slp!&*()_+>
UVM_INFO ../UVM_ENV/f_scoreboard.sv(46) @ 155000: uvm_test_top.f_scoreboard [f_scoreboard] SCB get DUT DATA
<slb!&*()_+>---<sls!&*()_+>loc: -1<sls!&*()_+>src: ../UVM_ENV/f_scoreboard.sv<sls!&*()_+>line: 46<sls!&*()_+>time: 155000 ps<sls!&*()_+>length: 0<sls!&*()_+>...<sls!&*()_+><sle!&*()_+>
<slp!&*()_+>
UVM_INFO ../UVM_ENV/f_scoreboard.sv(52) @ 155000: uvm_test_top.f_scoreboard [f_scoreboard] cmp successfully
<slb!&*()_+>---<sls!&*()_+>loc: -1<sls!&*()_+>src: ../UVM_ENV/f_scoreboard.sv<sls!&*()_+>line: 52<sls!&*()_+>time: 155000 ps<sls!&*()_+>length: 0<sls!&*()_+>...<sls!&*()_+><sle!&*()_+>
<slp!&*()_+>
UVM_INFO ../UVM_ENV/ref_model.sv(118) @ 165000: uvm_test_top.rfmodel [ref_model] igonore the min op
<slb!&*()_+>---<sls!&*()_+>loc: -1<sls!&*()_+>src: ../UVM_ENV/ref_model.sv<sls!&*()_+>line: 118<sls!&*()_+>time: 165000 ps<sls!&*()_+>length: 0<sls!&*()_+>...<sls!&*()_+><sle!&*()_+>
----------------------------------------------
Name         Type           Size  Value       
----------------------------------------------
